{
  "project_info": {
    "project_number": "171114267524",
    "firebase_url": "https://alphon-ybt.firebaseio.com",
    "project_id": "alphon-ybt",
    "storage_bucket": "alphon-ybt.appspot.com"
  },
  "client": [
    {
      "client_info": {
        "mobilesdk_app_id": "1:171114267524:android:61dcb4573345510f",
        "android_client_info": {
          "package_name": "com.elihai.alphone"
        }
      },
      "oauth_client": [
        {
          "client_id": "171114267524-keh7k9hruin1vgsufbgjaambpjvf3nvt.apps.googleusercontent.com",
          "client_type": 1,
          "android_info": {
            "package_name": "com.elihai.alphone",
            "certificate_hash": "50988f369c78e5ba83f0969b729db69d611425a2"
          }
        },
        {
          "client_id": "171114267524-og0s9mir0oq92b8bkeejlf3u7hjj5a8p.apps.googleusercontent.com",
          "client_type": 3
        }
      ],
      "api_key": [
        {
          "current_key": "AIzaSyCaZE93I2Gf-OBJ2QJpEE8gb7wBGOAPldI"
        }
      ],
      "services": {
        "analytics_service": {
          "status": 1
        },
        "appinvite_service": {
          "status": 2,
          "other_platform_oauth_client": [
            {
              "client_id": "171114267524-og0s9mir0oq92b8bkeejlf3u7hjj5a8p.apps.googleusercontent.com",
              "client_type": 3
            }
          ]
        },
        "ads_service": {
          "status": 2
        }
      }
    }
  ],
  "configuration_version": "1"
}